module test-backend-superiindo

go 1.17

require gorm.io/driver/mysql v1.3.2

require (
	github.com/mattn/go-colorable v0.1.11 // indirect
	github.com/valyala/bytebufferpool v1.0.0 // indirect
	github.com/valyala/fasttemplate v1.2.1 // indirect
	golang.org/x/text v0.3.7 // indirect
	google.golang.org/protobuf v1.28.0 // indirect
)

require (
	github.com/dgrijalva/jwt-go v3.2.0+incompatible
	github.com/gin-contrib/cors v1.3.1
	github.com/gin-contrib/sse v0.1.0 // indirect
	github.com/gin-gonic/gin v1.7.7
	github.com/go-playground/locales v0.14.0 // indirect
	github.com/go-playground/universal-translator v0.18.0 // indirect
	github.com/go-playground/validator/v10 v10.10.1 // indirect
	github.com/go-sql-driver/mysql v1.6.0 // indirect
	github.com/golang-jwt/jwt v3.2.2+incompatible
	github.com/golang/protobuf v1.5.2 // indirect
	github.com/jinzhu/inflection v1.0.0 // indirect
	github.com/jinzhu/now v1.1.5 // indirect
	github.com/joho/godotenv v1.4.0
	github.com/json-iterator/go v1.1.12 // indirect
	github.com/labstack/gommon v0.3.1
	github.com/leodido/go-urn v1.2.1 // indirect
	github.com/mattn/go-isatty v0.0.14 // indirect
	github.com/modern-go/concurrent v0.0.0-20180306012644-bacd9c7ef1dd // indirect
	github.com/modern-go/reflect2 v1.0.2 // indirect
	github.com/sirupsen/logrus v1.8.1
	github.com/ugorji/go/codec v1.2.7 // indirect
	golang.org/x/crypto v0.0.0-20220321153916-2c7772ba3064
	golang.org/x/sys v0.0.0-20220319134239-a9b59b0215f8 // indirect
	gopkg.in/yaml.v2 v2.4.0 // indirect
	gorm.io/gorm v1.23.3
)
